<?xml version="1.0" encoding="UTF-8" standalone="no"?>
<!-- Created with Inkscape (http://www.inkscape.org/) -->

<svg
   xmlns:dc="http://purl.org/dc/elements/1.1/"
   xmlns:cc="http://creativecommons.org/ns#"
   xmlns:rdf="http://www.w3.org/1999/02/22-rdf-syntax-ns#"
   xmlns:svg="http://www.w3.org/2000/svg"
   xmlns="http://www.w3.org/2000/svg"
   xmlns:xlink="http://www.w3.org/1999/xlink"
   xmlns:sodipodi="http://sodipodi.sourceforge.net/DTD/sodipodi-0.dtd"
   xmlns:inkscape="http://www.inkscape.org/namespaces/inkscape"
   width="32.497849mm"
   height="32.497849mm"
   viewBox="0 0 32.497849 32.497849"
   version="1.1"
   id="svg3740"
   inkscape:version="0.92.2 (5c3e80d, 2017-08-06)"
   sodipodi:docname="Rosette.svg">
  <defs
     id="defs3734">
    <linearGradient
       inkscape:collect="always"
       id="linearGradient4557">
      <stop
         style="stop-color:#000000;stop-opacity:1;"
         offset="0"
         id="stop4553" />
      <stop
         style="stop-color:#000000;stop-opacity:0;"
         offset="1"
         id="stop4555" />
    </linearGradient>
    <radialGradient
       inkscape:collect="always"
       xlink:href="#linearGradient4557"
       id="radialGradient4559"
       cx="-89.958336"
       cy="22.589287"
       fx="-89.958336"
       fy="22.589287"
       r="16.248924"
       gradientUnits="userSpaceOnUse" />
  </defs>
  <sodipodi:namedview
     id="base"
     pagecolor="#ffffff"
     bordercolor="#666666"
     borderopacity="1.0"
     inkscape:pageopacity="0.0"
     inkscape:pageshadow="2"
     inkscape:zoom="1.8844256"
     inkscape:cx="89.557972"
     inkscape:cy="20.616709"
     inkscape:document-units="mm"
     inkscape:current-layer="layer1"
     showgrid="false"
     inkscape:window-width="1920"
     inkscape:window-height="1017"
     inkscape:window-x="-8"
     inkscape:window-y="-8"
     inkscape:window-maximized="1" />
  <metadata
     id="metadata3737">
    <rdf:RDF>
      <cc:Work
         rdf:about="">
        <dc:format>image/svg+xml</dc:format>
        <dc:type
           rdf:resource="http://purl.org/dc/dcmitype/StillImage" />
        <dc:title></dc:title>
      </cc:Work>
    </rdf:RDF>
  </metadata>
  <g
     inkscape:label="Layer 1"
     inkscape:groupmode="layer"
     id="layer1"
     transform="translate(106.20726,-6.3403632)">
    <path
       sodipodi:type="star"
       id="path3723"
       sodipodi:sides="8"
       sodipodi:cx="-89.958336"
       sodipodi:cy="22.589287"
       sodipodi:r1="17.535322"
       sodipodi:r2="8.767663"
       sodipodi:arg1="0.39997541"
       sodipodi:arg2="0.79267449"
       inkscape:flatsided="false"
       inkscape:rounded="0"
       inkscape:randomized="0"
       d="m -73.807067,29.417466 -9.996869,-0.583559 0.43802,10.004303 -6.656216,-7.481492 -6.764383,7.383838 0.583559,-9.99687 -10.004304,0.438021 7.481493,-6.656216 -7.383843,-6.764383 9.996875,0.583559 -0.438021,-10.0043038 6.656216,7.4814928 6.764383,-7.3838384 -0.583559,9.9968694 10.004304,-0.438021 -7.481493,6.656217 z"
       inkscape:transform-center-x="1.7932762e-006"
       style="stroke-width:2.465;fill:#7c9c63;stroke:url(#radialGradient4559);stroke-miterlimit:4;stroke-dasharray:none;fill-opacity:1" />
  </g>
</svg>
